Running GCAM Data System with drake • gcamdata
…
See ?future::plan for all strategy options and explanations.

Loading data from the drake cache

You can use the typical arguments to driver_drake() such as stop_before or return_data_names to return outputs from cache after the initial run. And if you unsure if there have been any modifications since the last run that is the best way to load them. However, if you are sure it is up to date, we have provided a utility method load_from_cache for doing so and returning the data in the same format as data returned from driver(stop_after = "module_emissions_L121.nonco2_awb_R_S_T_Y"). Therefore we recommend using this utility rather than directly using drake::readd directly.

# We can give a list of files we want to load
data <- load_from_cache(c("L121.nonco2_tg_R_awb_C_Y_GLU"))
data
#> $L121.nonco2_tg_R_awb_C_Y_GLU
#> # A tibble: 2,995,650 x 7
#>    GCAM_region_ID Non.CO2   GCAM_commodity GCAM_subsector GLU     year      value
#>             <int> <chr>     <chr>          <chr>          <chr>  <dbl>      <dbl>
#>  1              1 BC_AWB    Corn           CornC4         GLU023  1971 0.0000501 
#>  2              1 CH4_AWB   Corn           CornC4         GLU023  1971 0.000389  
#>  3              1 CO_AWB    Corn           CornC4         GLU023  1971 0.00682   
#>  4              1 H2_AWB    Corn           CornC4         GLU023  1971 0.000166  
#>  5              1 N2O_AWB   Corn           CornC4         GLU023  1971 0.00000669
#>  6              1 NH3_AWB   Corn           CornC4         GLU023  1971 0.000145  
#>  7              1 NMVOC_AWB Corn           CornC4         GLU023  1971 0.00154   
#>  8              1 NOx_AWB   Corn           CornC4         GLU023  1971 0.000208  
#>  9              1 OC_AWB    Corn           CornC4         GLU023  1971 0.000154  
#> 10              1 SO2_AWB   Corn           CornC4         GLU023  1971 0.0000267 
#> # ... with 2,995,640 more rows
# We can also combine this with other gcamdata utilities to
# load all input or outputs of a chunk as well
data <- load_from_cache(outputs_of("module_emissions_L121.nonco2_awb_R_S_T_Y"))
#> Error in module_emissions_L121.nonco2_awb_R_S_T_Y("DECLARE_OUTPUTS"): could not find function "module_emissions_L121.nonco2_awb_R_S_T_Y"
data
#> $L121.nonco2_tg_R_awb_C_Y_GLU
#> # A tibble: 2,995,650 x 7
#>    GCAM_region_ID Non.CO2   GCAM_commodity GCAM_subsector GLU     year      value
#>             <int> <chr>     <chr>          <chr>          <chr>  <dbl>      <dbl>
#>  1              1 BC_AWB    Corn           CornC4         GLU023  1971 0.0000501 
#>  2              1 CH4_AWB   Corn           CornC4         GLU023  1971 0.000389  
#>  3              1 CO_AWB    Corn           CornC4         GLU023  1971 0.00682   
#>  4              1 H2_AWB    Corn           CornC4         GLU023  1971 0.000166  
#>  5              1 N2O_AWB   Corn           CornC4         GLU023  1971 0.00000669
#>  6              1 NH3_AWB   Corn           CornC4         GLU023  1971 0.000145  
#>  7              1 NMVOC_AWB Corn           CornC4         GLU023  1971 0.00154   
#>  8              1 NOx_AWB   Corn           CornC4         GLU023  1971 0.000208  
#>  9              1 OC_AWB    Corn           CornC4         GLU023  1971 0.000154  
#> 10              1 SO2_AWB   Corn           CornC4         GLU023  1971 0.0000267 
#> # ... with 2,995,640 more rows
…
